module jwt-todo

go 1.15

require (
	github.com/dgrijalva/jwt-go v3.2.0+incompatible
	github.com/gin-gonic/gin v1.6.3
	github.com/go-redis/redis/v7 v7.4.0
	github.com/gorilla/mux v1.8.0 // indirect
	github.com/twinj/uuid v1.0.0
)
